[
  {
    "avg_current": 2.7573839319727873,
    "max_current": 7.584053999999999,
    "avg_voltage": 229.9998930000001,
    "max_voltage": 229.99989300000001,
    "avg_power": 634.198301353742,
    "max_power": 1744.332153,
    "avg_cosphi": 1,
    "max_cosphi": 1,
    "avg_frequency": 149.70081214285705,
    "max_frequency": 187.397156,
    "cumulated_pos_consumption": 3107.57169,
    "cumulated_neg_consumption": 0,
    "year": 2020,
    "quarter": 1,
    "month": 1,
    "week": 1,
    "day": 1,
    "hour": 0
  },
  {
    "avg_current": 2.8322359513888897,
    "max_current": 8.933060000000001,
    "avg_voltage": 229.9998930000001,
    "max_voltage": 229.99989300000001,
    "avg_power": 651.4142479305553,
    "max_power": 2054.603516,
    "avg_cosphi": 1,
    "max_cosphi": 1,
    "avg_frequency": 148.97255536805545,
    "max_frequency": 179.510696,
    "cumulated_pos_consumption": 3126.7884599999998,
    "cumulated_neg_consumption": 0,
    "year": 2020,
    "quarter": 1,
    "month": 1,
    "week": 1,
    "day": 1,
    "hour": 1
  },
  {
    "avg_current": 2.855643250000001,
    "max_current": 11.885692,
    "avg_voltage": 229.9998930000001,
    "max_voltage": 229.99989300000001,
    "avg_power": 656.7979603263886,
    "max_power": 2733.70874,
    "avg_cosphi": 1,
    "max_cosphi": 1,
    "avg_frequency": 149.48502128472225,
    "max_frequency": 182.994263,
    "cumulated_pos_consumption": 3152.630238,
    "cumulated_neg_consumption": 0,
    "year": 2020,
    "quarter": 1,
    "month": 1,
    "week": 1,
    "day": 1,
    "hour": 2
  },
  {
    "avg_current": 2.8540968263888886,
    "max_current": 10.377305,
    "avg_voltage": 229.9998930000001,
    "max_voltage": 229.99989300000001,
    "avg_power": 656.4423010486112,
    "max_power": 2386.780273,
    "avg_cosphi": 1,
    "max_cosphi": 1,
    "avg_frequency": 148.95071993750008,
    "max_frequency": 175.61201499999999,
    "cumulated_pos_consumption": 3150.9229979999973,
    "cumulated_neg_consumption": 0,
    "year": 2020,
    "quarter": 1,
    "month": 1,
    "week": 1,
    "day": 1,
    "hour": 3
  },
  {
    "avg_current": 2.847092819444443,
    "max_current": 9.177864999999999,
    "avg_voltage": 229.9998930000001,
    "max_voltage": 229.99989300000001,
    "avg_power": 654.8313560347226,
    "max_power": 2110.90918,
    "avg_cosphi": 1,
    "max_cosphi": 1,
    "avg_frequency": 149.46890496527772,
    "max_frequency": 183.33590700000002,
    "cumulated_pos_consumption": 3143.1904600000007,
    "cumulated_neg_consumption": 0,
    "year": 2020,
    "quarter": 1,
    "month": 1,
    "week": 1,
    "day": 1,
    "hour": 4
  },
  {
    "avg_current": 2.803872551020407,
    "max_current": 9.151137,
    "avg_voltage": 229.9998930000001,
    "max_voltage": 229.99989300000001,
    "avg_power": 644.8906636462585,
    "max_power": 2104.761719,
    "avg_cosphi": 1,
    "max_cosphi": 1,
    "avg_frequency": 148.77504585714274,
    "max_frequency": 176.045517,
    "cumulated_pos_consumption": 3159.9642519999998,
    "cumulated_neg_consumption": 0,
    "year": 2020,
    "quarter": 1,
    "month": 1,
    "week": 1,
    "day": 1,
    "hour": 5
  },
  {
    "avg_current": 2.886726291666667,
    "max_current": 9.099855,
    "avg_voltage": 229.9998930000001,
    "max_voltage": 229.99989300000001,
    "avg_power": 663.9470479305558,
    "max_power": 2092.967529,
    "avg_cosphi": 1,
    "max_cosphi": 1,
    "avg_frequency": 148.51808512500008,
    "max_frequency": 177.42706299999998,
    "cumulated_pos_consumption": 3186.9459260000017,
    "cumulated_neg_consumption": 0,
    "year": 2020,
    "quarter": 1,
    "month": 1,
    "week": 1,
    "day": 1,
    "hour": 6
  },
  {
    "avg_current": 3.54679940277778,
    "max_current": 14.012452,
    "avg_voltage": 229.9998930000001,
    "max_voltage": 229.99989300000001,
    "avg_power": 815.7638617847226,
    "max_power": 3222.8642579999996,
    "avg_cosphi": 1,
    "max_cosphi": 1,
    "avg_frequency": 149.51556293749996,
    "max_frequency": 184.094528,
    "cumulated_pos_consumption": 3915.666608,
    "cumulated_neg_consumption": 0,
    "year": 2020,
    "quarter": 1,
    "month": 1,
    "week": 1,
    "day": 1,
    "hour": 7
  },
  {
    "avg_current": 3.573819840277779,
    "max_current": 9.193878,
    "avg_voltage": 229.9998930000001,
    "max_voltage": 229.99989300000001,
    "avg_power": 821.9785809166666,
    "max_power": 2114.592041,
    "avg_cosphi": 1,
    "max_cosphi": 1,
    "avg_frequency": 148.6136354583333,
    "max_frequency": 178.371414,
    "cumulated_pos_consumption": 3945.497154000001,
    "cumulated_neg_consumption": 0,
    "year": 2020,
    "quarter": 1,
    "month": 1,
    "week": 1,
    "day": 1,
    "hour": 8
  },
  {
    "avg_current": 3.634799687074831,
    "max_current": 8.561847,
    "avg_voltage": 229.9998930000001,
    "max_voltage": 229.99989300000001,
    "avg_power": 836.0039311904762,
    "max_power": 1969.2244870000002,
    "avg_cosphi": 1,
    "max_cosphi": 1,
    "avg_frequency": 148.5218037687074,
    "max_frequency": 178.916641,
    "cumulated_pos_consumption": 4096.419262000001,
    "cumulated_neg_consumption": 0,
    "year": 2020,
    "quarter": 1,
    "month": 1,
    "week": 1,
    "day": 1,
    "hour": 9
  },
  {
    "avg_current": 3.591667284722222,
    "max_current": 8.327638,
    "avg_voltage": 229.9998930000001,
    "max_voltage": 229.99989300000001,
    "avg_power": 826.0834698125001,
    "max_power": 1915.356079,
    "avg_cosphi": 1,
    "max_cosphi": 1,
    "avg_frequency": 146.77182206249995,
    "max_frequency": 176.588181,
    "cumulated_pos_consumption": 3965.2007000000026,
    "cumulated_neg_consumption": 0,
    "year": 2020,
    "quarter": 1,
    "month": 1,
    "week": 1,
    "day": 1,
    "hour": 10
  },
  {
    "avg_current": 3.6690137013888897,
    "max_current": 10.614778999999999,
    "avg_voltage": 229.9998930000001,
    "max_voltage": 229.99989300000001,
    "avg_power": 843.873153291667,
    "max_power": 2441.399658,
    "avg_cosphi": 1,
    "max_cosphi": 1,
    "avg_frequency": 148.93674422222227,
    "max_frequency": 180.909134,
    "cumulated_pos_consumption": 4050.5911259999993,
    "cumulated_neg_consumption": 0,
    "year": 2020,
    "quarter": 1,
    "month": 1,
    "week": 1,
    "day": 1,
    "hour": 11
  },
  {
    "avg_current": 3.6985162083333307,
    "max_current": 13.927883999999999,
    "avg_voltage": 229.9998930000001,
    "max_voltage": 229.99989300000001,
    "avg_power": 850.6587138750006,
    "max_power": 3203.412354,
    "avg_cosphi": 1,
    "max_cosphi": 1,
    "avg_frequency": 150.6580206319445,
    "max_frequency": 184.565323,
    "cumulated_pos_consumption": 4083.161836,
    "cumulated_neg_consumption": 0,
    "year": 2020,
    "quarter": 1,
    "month": 1,
    "week": 1,
    "day": 1,
    "hour": 12
  },
  {
    "avg_current": 3.6423414722222196,
    "max_current": 9.167766,
    "avg_voltage": 229.9998930000001,
    "max_voltage": 229.99989300000001,
    "avg_power": 837.7385470069453,
    "max_power": 2108.5859379999997,
    "avg_cosphi": 1,
    "max_cosphi": 1,
    "avg_frequency": 149.8909880972222,
    "max_frequency": 195.236557,
    "cumulated_pos_consumption": 4021.145008,
    "cumulated_neg_consumption": 0,
    "year": 2020,
    "quarter": 1,
    "month": 1,
    "week": 1,
    "day": 1,
    "hour": 13
  },
  {
    "avg_current": 3.6160732517006835,
    "max_current": 7.515917999999999,
    "avg_voltage": 229.9998930000001,
    "max_voltage": 229.99989300000001,
    "avg_power": 831.6968487891163,
    "max_power": 1728.661011,
    "avg_cosphi": 1,
    "max_cosphi": 1,
    "avg_frequency": 150.44376953741516,
    "max_frequency": 175.591949,
    "cumulated_pos_consumption": 4075.3145440000017,
    "cumulated_neg_consumption": 0,
    "year": 2020,
    "quarter": 1,
    "month": 1,
    "week": 1,
    "day": 1,
    "hour": 14
  },
  {
    "avg_current": 3.5827244444444446,
    "max_current": 8.63301,
    "avg_voltage": 229.9998930000001,
    "max_voltage": 229.99989300000001,
    "avg_power": 824.0266329444443,
    "max_power": 1985.592041,
    "avg_cosphi": 1,
    "max_cosphi": 1,
    "avg_frequency": 148.98794631250001,
    "max_frequency": 176.23053000000002,
    "cumulated_pos_consumption": 3955.327732000001,
    "cumulated_neg_consumption": 0,
    "year": 2020,
    "quarter": 1,
    "month": 1,
    "week": 1,
    "day": 1,
    "hour": 15
  },
  {
    "avg_current": 3.680946312499999,
    "max_current": 8.348632,
    "avg_voltage": 229.9998930000001,
    "max_voltage": 229.99989300000001,
    "avg_power": 846.6176320972218,
    "max_power": 1920.184937,
    "avg_cosphi": 1,
    "max_cosphi": 1,
    "avg_frequency": 149.64605423611107,
    "max_frequency": 190.994644,
    "cumulated_pos_consumption": 4063.764681999998,
    "cumulated_neg_consumption": 0,
    "year": 2020,
    "quarter": 1,
    "month": 1,
    "week": 1,
    "day": 1,
    "hour": 16
  },
  {
    "avg_current": 3.6645273124999997,
    "max_current": 13.942698000000002,
    "avg_voltage": 229.9998930000001,
    "max_voltage": 229.99989300000001,
    "avg_power": 842.8412738611108,
    "max_power": 3206.820557,
    "avg_cosphi": 1,
    "max_cosphi": 1,
    "avg_frequency": 150.06129332638898,
    "max_frequency": 183.89581299999998,
    "cumulated_pos_consumption": 4045.638131999999,
    "cumulated_neg_consumption": 0,
    "year": 2020,
    "quarter": 1,
    "month": 1,
    "week": 1,
    "day": 1,
    "hour": 17
  },
  {
    "avg_current": 3.6059672708333332,
    "max_current": 9.218553,
    "avg_voltage": 229.9998930000001,
    "max_voltage": 229.99989300000001,
    "avg_power": 829.3724623958328,
    "max_power": 2120.267578,
    "avg_cosphi": 1,
    "max_cosphi": 1,
    "avg_frequency": 148.00735807638895,
    "max_frequency": 183.683487,
    "cumulated_pos_consumption": 3980.9878839999974,
    "cumulated_neg_consumption": 0,
    "year": 2020,
    "quarter": 1,
    "month": 1,
    "week": 1,
    "day": 1,
    "hour": 18
  },
  {
    "avg_current": 3.505642510204081,
    "max_current": 8.68061,
    "avg_voltage": 229.9998930000001,
    "max_voltage": 229.99989300000001,
    "avg_power": 806.2977840680272,
    "max_power": 1996.5399170000003,
    "avg_cosphi": 1,
    "max_cosphi": 1,
    "avg_frequency": 150.89766636734697,
    "max_frequency": 188.39209,
    "cumulated_pos_consumption": 3950.8591400000005,
    "cumulated_neg_consumption": 0,
    "year": 2020,
    "quarter": 1,
    "month": 1,
    "week": 1,
    "day": 1,
    "hour": 19
  }
]
