[
  {
    "createdAt": "2020-07-17T09:40:20.140Z",
    "createdBy": "anonymous",
    "modifiedAt": "2020-07-18T06:44:39.817Z",
    "modifiedBy": "anonymous",
    "ID": 1,
    "value": "{\"gadgets\":[],\"dashboards\":[],\"gadgettypes\":[\"Prediction\",\"LineChart\",\"KPI\"],\"measuretypes\":[\"Energy Consumption\",\"Off-Peak Percentage\"],\"scopetypes\":{\"consumption\":[\"AllTime_Hourly\",\"AllTime_Daily\",\"AllTime_Weekly\",\"AllTime_Monthly\",\"AllTime_Quarterly\",\"AllTime_Yearly\",\"Hourly_ThisWeek\",\"Hourly_ThisMonth\",\"Hourly_ThisYear\",\"Daily_ThisWeek\",\"Daily_ThisMonth\",\"Daily_ThisYear\",\"Weekly_ThisMonth\",\"Weekly_ThisYear\",\"Monthly_ThisYear\",\"Quarterly_ThisYear\"],\"offpeak\":[\"AllTime_Weekly\",\"AllTime_Monthly\",\"AllTime_Quarterly\",\"AllTime_Yearly\"]},\"loading\":false,\"postID\":1,\"events\":[],\"newNotifications\":[],\"notificationCounter\":0,\"settings\":{\"offPeakStart\":8,\"offPeakEnd\":18,\"line1Target\":21,\"line2Target\":20,\"line3Target\":39,\"allLinesTarget\":80,\"exceedTarget\":200}}"
  }
]
